128 -72 776
216 -8 40 -96 -16 -32 -120 -40 -8 344
104 -16 32 -16 -40 72 -16 -8 -40 576
176 -8 -192 -336 248
272 -40 -16 -8 -16 -16 576
992
128 -48 -24 -40 -16 -24 -16 -40 592
992
-40 944
328 -40 -40 560
992
-8 -8 -8 -8 8 -8 -8 -8 -8 -8 -8 816
-16 -16 -8 8 -16 -112 -40 720
-8 976
-992
992
-40 -8 -16 904
-16 16 -16 -16 -16 872
992
992
